Create a Subject History Table — CreateHistory • public.ctn0094extra
…
If this behavior is not desirable, you must specify a study range. For
example, you may have a short recruitment period followed by a 6-month
clinical trial. In this instance, you may want to ignore any data more
than 30 days prior to Study Day 0 for each subject or more than a few
weeks after the end of the trial. Thus, you would set
firstDay_int = -30L and lastDay_int = 6 * 30 + 14.

    Examples

   data_ls <- loadRawData(c("tlfb", "all_drugs", "everybody"))
   CreateHistory(rawData_ls = data_ls, firstDay_int = -30)
#> # A tibble: 2,459,960 × 2
#>      who  when
#>    <int> <dbl>
#>  1     8   -30
#>  2     8   -29
#>  3     8   -28
#>  4     8   -27
#>  5     8   -26
#>  6     8   -25
#>  7     8   -24
#>  8     8   -23
#>  9     8   -22
#> 10     8   -21
#> # ℹ 2,459,950 more rows
…
