Mark Use Day by Subject — MarkUse • public.ctn0094extra
…
    Details

    This function is basically just a fancy wrapper around some dplyr
code. We just don't want the user to have to 1) know dplyr, or 2) write
the code themselves.

    Examples

   MarkUse(c("Crack", "Pcp", "Opioid"))
#> # A tibble: 29,587 × 3
#>      who  when source
#>    <int> <dbl> <fct> 
#>  1     2     0 UDS   
#>  2     2     7 UDS   
#>  3     2    97 UDS   
#>  4     3    -9 TFB   
#>  5     3   196 UDS   
#>  6     4   -47 TFB   
#>  7     4   -46 TFB   
#>  8     4   -45 TFB   
#>  9     4   -44 TFB   
#> 10     4   -43 TFB   
#> # ℹ 29,577 more rows
…
