Summarizing Longitudinal Substance Use as Quinary Words • public.ctn0094extra
…
data_ls$treatment
#> # A tibble: 1,008 × 3
#>      who amount  when
#>    <int>  <dbl> <dbl>
#>  1     4      1     1
#>  2     4      1    28
#>  3     4      1    53
#>  4     4      1    81
#>  5     4      1   109
#>  6     4      1   141
#>  7    13      8     4
#>  8    13     12     5
#>  9    13     16     6
#> 10    13     16     7
#> # ℹ 998 more rows
…
# Inspect results
treatTimeLong_df
#> # A tibble: 1,009 × 6
#> # Rowwise: 
#>      who  when treatment        randomized amount treated
#>    <int> <dbl> <fct>            <fct>       <dbl> <lgl>  
#>  1     4     1 Inpatient NR-NTX 1               1 TRUE   
#>  2     4    28 NA               NA              1 TRUE   
#>  3     4    53 NA               NA              1 TRUE   
#>  4     4    81 NA               NA              1 TRUE   
#>  5     4   109 NA               NA              1 TRUE   
#>  6     4   141 NA               NA              1 TRUE   
#>  7    13     4 Outpatient BUP   1               8 TRUE   
#>  8    13     5 NA               NA             12 TRUE   
#>  9    13     6 NA               NA             16 TRUE   
#> 10    13     7 NA               NA             16 TRUE   
#> # ℹ 999 more rows
…
start_int <- c(`27` = -30L, `51` = -30L)
end_int   <- c(`27` = 168L, `51` = 168L)
backbone2751_df <- 
  CreateProtocolHistory(
      start_vec = start_int,
      end_vec = end_int
    ) %>% 
  filter(who %in% examplePeople_int)

# Inspect
 backbone2751_df
#> # A tibble: 1,592 × 3
#>      who project  when
#>    <int> <chr>   <int>
#>  1    13 27        -30
#>  2    13 27        -29
#>  3    13 27        -28
#>  4    13 27        -27
#>  5    13 27        -26
#>  6    13 27        -25
#>  7    13 27        -24
#>  8    13 27        -23
#>  9    13 27        -22
#> 10    13 27        -21
#> # ℹ 1,582 more rows
…
backbone30_df <-
    randomization %>%
    full_join(everybody, by = "who") %>%
    filter(project == "30") %>%
  filter(who %in% examplePeople_int) %>% 
    CreateCTN30ProtocolHistory() %>%
    mutate(project = "30") %>%
    select(who, project, when)

# Inspect
backbone30_df
#> # A tibble: 402 × 3
#>      who project  when
#>    <int> <chr>   <dbl>
#>  1     1 30        -30
#>  2     1 30        -29
#>  3     1 30        -28
#>  4     1 30        -27
#>  5     1 30        -26
#>  6     1 30        -25
#>  7     1 30        -24
#>  8     1 30        -23
#>  9     1 30        -22
#> 10     1 30        -21
#> # ℹ 392 more rows
…
Add First Randomization Day

timelineRand1_df <-
    data_ls$randomization %>%
    mutate(randomized = randomized == "1") %>%
    # Join to backbone and arrange within subject by day
    full_join(backbone_df, by = c("who", "when")) %>%
    group_by(who) %>%
    arrange(when, .by_group = TRUE) %>%
    select(who, project, when, randomized)

# Inspect
timelineRand1_df
#> # A tibble: 1,994 × 4
#> # Groups:   who [10]
#>      who project  when randomized
#>    <int> <chr>   <dbl> <lgl>     
#>  1     1 30        -30 NA        
#>  2     1 30        -29 NA        
#>  3     1 30        -28 NA        
#>  4     1 30        -27 NA        
#>  5     1 30        -26 NA        
#>  6     1 30        -25 NA        
#>  7     1 30        -24 NA        
#>  8     1 30        -23 NA        
#>  9     1 30        -22 NA        
#> 10     1 30        -21 NA        
#> # ℹ 1,984 more rows

Add on the Visit Days

timelineVisit1_df <-
    data_ls$visit %>%
    select(who, when, visit, status = what) %>%
    filter(status %in% c("visit", "final")) %>%
    mutate(visit = TRUE) %>%
    select(who, when, visit) %>%
    left_join(timelineRand1_df, ., by = c("who", "when"))

# Inspect
timelineVisit1_df
#> # A tibble: 1,994 × 5
#> # Groups:   who [10]
#>      who project  when randomized visit
#>    <int> <chr>   <dbl> <lgl>      <lgl>
#>  1     1 30        -30 NA         NA   
#>  2     1 30        -29 NA         NA   
#>  3     1 30        -28 NA         NA   
#>  4     1 30        -27 NA         NA   
#>  5     1 30        -26 NA         NA   
#>  6     1 30        -25 NA         NA   
#>  7     1 30        -24 NA         NA   
#>  8     1 30        -23 NA         NA   
#>  9     1 30        -22 NA         NA   
#> 10     1 30        -21 NA         NA   
#> # ℹ 1,984 more rows
…
# Inspect
derived_visitImputed
#> # A tibble: 256 × 3
#>      who  when visitImputed
#>    <int> <dbl> <chr>       
#>  1     1     0 Missing     
#>  2     1     7 Missing     
#>  3     1    14 Missing     
#>  4     1    21 Missing     
#>  5     1    28 Missing     
#>  6     1    35 Missing     
#>  7     1    42 Missing     
#>  8     1    49 Missing     
#>  9     1    56 Missing     
#> 10     1    63 Missing     
#> # ℹ 246 more rows
…
